{"pandoc-api-version":[1,23,1],"meta":{"author":{"t":"MetaInlines","c":[{"t":"Str","c":"API"},{"t":"Space"},{"t":"Str","c":"Team"}]},"category":{"t":"MetaInlines","c":[{"t":"Str","c":"api"}]},"date":{"t":"MetaInlines","c":[{"t":"Str","c":"2024-01-20"}]},"description":{"t":"MetaInlines","c":[{"t":"Str","c":"Complete"},{"t":"Space"},{"t":"Str","c":"API"},{"t":"Space"},{"t":"Str","c":"reference"},{"t":"Space"},{"t":"Str","c":"for"},{"t":"Space"},{"t":"Str","c":"client"},{"t":"Space"},{"t":"Str","c":"integration"}]},"id":{"t":"MetaInlines","c":[{"t":"Str","c":"api-documentation"}]},"title":{"t":"MetaInlines","c":[{"t":"Str","c":"REST"},{"t":"Space"},{"t":"Str","c":"API"},{"t":"Space"},{"t":"Str","c":"Documentation"}]}},"blocks":[{"t":"RawBlock","c":["json","{\n  \"@context\": {\n    \"@vocab\": \"https://schema.org/\",\n    \"sections\": {\n      \"@container\": \"@list\"\n    }\n  },\n  \"@graph\": [\n    {\n      \"@context\": {\n        \"@vocab\": \"https://schema.org/\",\n        \"sections\": {\n          \"@container\": \"@list\"\n        }\n      },\n      \"@type\": \"Document\",\n      \"@id\": \"api-documentation\",\n      \"filename\": \"unknown\",\n      \"title\": \"REST API Documentation\",\n      \"description\": \"Complete API reference for client integration\",\n      \"dateCreated\": \"2024-01-20\",\n      \"author\": \"API Team\",\n      \"sections\": [\n        {\n          \"@type\": \"Section\",\n          \"@id\": \"unknown-sec-2-rest-api-documentation\",\n          \"title\": \"REST API Documentation\",\n          \"level\": 1,\n          \"content\": \"This document provides comprehensive documentation for our REST API endpoints.\"\n        },\n        {\n          \"@type\": \"Section\",\n          \"@id\": \"unknown-sec-3-authentication\",\n          \"title\": \"Authentication\",\n          \"level\": 2,\n          \"content\": \"All API endpoints require authentication using JWT tokens. Include the token in the Authorization header:\\n\\n```\\nAuthorization: Bearer <your-jwt-token>\\n```\"\n        },\n        {\n          \"@type\": \"Section\",\n          \"@id\": \"unknown-sec-4-user-endpoints\",\n          \"title\": \"User Endpoints\",\n          \"level\": 2,\n          \"content\": \"### POST /api/users/register\\n\\nRegister a new user account.\\n\\nRequest Body:\\n\\n```json\\n{\\n  \\\"email\\\": \\\"user@example.com\\\",\\n  \\\"password\\\": \\\"securePassword123\\\",\\n  \\\"name\\\": \\\"John Doe\\\"\\n}\\n```\\n\\nResponse:\\n\\n```json\\n{\\n  \\\"id\\\": \\\"user_123\\\",\\n  \\\"email\\\": \\\"user@example.com\\\",\\n  \\\"name\\\": \\\"John Doe\\\",\\n  \\\"createdAt\\\": \\\"2024-01-20T10:00:00Z\\\"\\n}\\n```\\n\\n### POST /api/users/login\\n\\nAuthenticate user and receive JWT token.\\n\\nRequest Body:\\n\\n```json\\n{\\n  \\\"email\\\": \\\"user@example.com\\\",\\n  \\\"password\\\": \\\"securePassword123\\\"\\n}\\n```\\n\\nResponse:\\n\\n```json\\n{\\n  \\\"token\\\": \\\"eyJhbGciOiJIUzI1NiIsInR5cCI6IkpXVCJ9...\\\",\\n  \\\"expiresIn\\\": 3600,\\n  \\\"user\\\": {\\n    \\\"id\\\": \\\"user_123\\\",\\n    \\\"email\\\": \\\"user@example.com\\\",\\n    \\\"name\\\": \\\"John Doe\\\"\\n  }\\n}\\n```\"\n        },\n        {\n          \"@type\": \"Section\",\n          \"@id\": \"unknown-sec-5-data-endpoints\",\n          \"title\": \"Data Endpoints\",\n          \"level\": 2,\n          \"content\": \"### GET /api/data/items\\n\\nRetrieve paginated list of items.\\n\\nQuery Parameters: - page: Page number (default: 1) - limit: Items per page (default: 20, max: 100) - sort: Sort field (id, name, createdAt) - order: Sort order (asc, desc)\\n\\nResponse:\\n\\n```json\\n{\\n  \\\"items\\\": [\\n    {\\n      \\\"id\\\": \\\"item_1\\\",\\n      \\\"name\\\": \\\"Sample Item\\\",\\n      \\\"description\\\": \\\"A sample item\\\",\\n      \\\"createdAt\\\": \\\"2024-01-20T10:00:00Z\\\"\\n    }\\n  ],\\n  \\\"pagination\\\": {\\n    \\\"page\\\": 1,\\n    \\\"limit\\\": 20,\\n    \\\"total\\\": 150,\\n    \\\"pages\\\": 8\\n  }\\n}\\n```\\n\\n### POST /api/data/items\\n\\nCreate a new item.\\n\\nRequest Body:\\n\\n```json\\n{\\n  \\\"name\\\": \\\"New Item\\\",\\n  \\\"description\\\": \\\"Description of the new item\\\",\\n  \\\"category\\\": \\\"electronics\\\"\\n}\\n```\"\n        },\n        {\n          \"@type\": \"Section\",\n          \"@id\": \"unknown-sec-6-error-handling\",\n          \"title\": \"Error Handling\",\n          \"level\": 2,\n          \"content\": \"The API uses standard HTTP status codes and returns error details in JSON format:\\n\\n```json\\n{\\n  \\\"error\\\": {\\n    \\\"code\\\": \\\"VALIDATION_ERROR\\\",\\n    \\\"message\\\": \\\"Invalid input data\\\",\\n    \\\"details\\\": [\\n      {\\n        \\\"field\\\": \\\"email\\\",\\n        \\\"message\\\": \\\"Invalid email format\\\"\\n      }\\n    ]\\n  }\\n}\\n```\"\n        },\n        {\n          \"@type\": \"Section\",\n          \"@id\": \"unknown-sec-7-rate-limiting\",\n          \"title\": \"Rate Limiting\",\n          \"level\": 2,\n          \"content\": \"API requests are limited to 1000 requests per hour per user. Rate limit information is included in response headers:\\n\\n```\\nX-RateLimit-Limit: 1000\\nX-RateLimit-Remaining: 999\\nX-RateLimit-Reset: 1642694400\\n```\"\n        }\n      ]\n    }\n  ]\n}"]}]}
